/home/moacircardoso/IdeaProjects/apache-flume-poc/inventario/carga-inventario/src/main/java/co/com/claro/logistica/inventario/cargainventario/InventarioDTO.java
/home/moacircardoso/IdeaProjects/apache-flume-poc/inventario/carga-inventario/src/main/java/co/com/claro/logistica/inventario/cargainventario/OracleJDBCSource.java
/home/moacircardoso/IdeaProjects/apache-flume-poc/inventario/carga-inventario/src/main/java/co/com/claro/logistica/inventario/cargainventario/NatsSink.java
/home/moacircardoso/IdeaProjects/apache-flume-poc/inventario/carga-inventario/src/main/java/co/com/claro/logistica/inventario/cargainventario/CargaInventarioApplication.java
/home/moacircardoso/IdeaProjects/apache-flume-poc/inventario/carga-inventario/src/main/java/co/com/claro/logistica/inventario/cargainventario/JsonEvent.java
